…
    ## Warning: Problem with `mutate()` input `phr`.
    ## ℹ NAs introduced by coercion
    ## ℹ Input `phr` is `.Primitive("as.double")(phr)`.

``` r
#view new dataset
txcoviddata
```

    ## # A tibble: 254 x 15
    ##    county confirmed_cases probable_cases fatalities   phr doses_allocated
    ##    <chr>            <dbl>          <dbl>      <dbl> <dbl>           <dbl>
    ##  1 Ander…            4809           1268        110    NA            9800
    ##  2 Andre…            1701              0         46    NA            3300
    ##  3 Angel…            4697           3339        265    NA           28300
    ##  4 Arans…             879            277         35    11            2300
    ##  5 Archer             678            101         12    NA            1600
    ##  6 Armst…             107             42          6     1            1100
    ##  7 Atasc…            4086           1357        141     8            8100
    ##  8 Austin            1593            310         32    NA            3900
    ##  9 Bailey             585            217         17     1           14545
    ## 10 Bande…             922            368         26     8            1300
    ## # … with 244 more rows, and 9 more variables: doses_administered <dbl>,
    ## #   pop_one_plus_doses <dbl>, pop_fully_vaccinated <dbl>, pop_16 <dbl>,
    ## #   pop_65 <dbl>, pop_healthcare <dbl>, pop_ltcr <dbl>, pop_condition <dbl>,
    ## #   pop_education <dbl>
…
  mutate("prop_elligible_vaccinated" = (pop_one_plus_doses/pop_elligible)) %>%
  #create categorical variable indicating if the county has a high, medium, or low level of cases
  mutate(case_level = case_when(confirmed_cases>10000 ~ "high", 
                                  1000<=confirmed_cases & confirmed_cases<=10000 ~ "med",
                                  confirmed_cases<1000 ~ "low"))
txcoviddata2 %>%
  #select against the variables that comprise pop_1a and pop_1b as well as the public health region variable
  select(-c("pop_16", "pop_65", "pop_healthcare", "pop_ltcr", "pop_condition", "pop_education", "phr" )) %>%
  #group by case_level
  group_by(case_level) %>%
  #arrange in descending order of confirmed cases
  arrange(desc(confirmed_cases))
```

    ## # A tibble: 254 x 13
    ## # Groups:   case_level [3]
    ##    county confirmed_cases probable_cases fatalities doses_allocated
    ##    <chr>            <dbl>          <dbl>      <dbl>           <dbl>
    ##  1 Harris          360421              0       5370         1423180
    ##  2 Dallas          248225          36710       3613          860935
    ##  3 Tarra…          208299          37330       2727          665690
    ##  4 Bexar           169419          29550       3071          672940
    ##  5 El Pa…          125985              0       2422          301620
    ##  6 Travis           76855              0        892          455450
    ##  7 Collin           70835          13754        754          309090
    ##  8 Fort …           52114           7707        588          235360
    ##  9 Hidal…           51784          26135       2361          288950
    ## 10 Denton           51108          17128        685          270790
    ## # … with 244 more rows, and 8 more variables: doses_administered <dbl>,
    ## #   pop_one_plus_doses <dbl>, pop_fully_vaccinated <dbl>, pop_1a <dbl>,
    ## #   pop_1b <dbl>, pop_elligible <dbl>, prop_elligible_vaccinated <dbl>,
    ## #   case_level <chr>
…
